[
  {
    "title": "Yellow Skirt",
    "asking_price": 3.10,
    "category": "clothing",
    "description": "Lovely yellow skirt. Great for a party. At home. On your own.",
    "image_url": "yellow-skirt.jpg",
	"date_posted": "2020-10-29T18:25:43Z",
    "seller": {"username": "jiffybag1"}
  },
  {
    "title": "Chelsea Boots",
    "asking_price": 19.99,
    "category": "footwear",
    "description": "Black Chelsea Boots. Great condition. Size 7.",
    "image_url": "boots.jpg",
	"date_posted": "2020-10-26T08:49:10Z",
    "seller": {"username": "maskedninja"}
  },
  {
    "title": "Grey Hoodie",
    "asking_price": 9.99,
    "category": "clothing",
    "description": "Brand new organic hoodie. Size M. Unwanted gift.",
    "image_url": "hoodie.jpg",
	"date_posted": "2020-10-30T12:13:01Z",
    "seller": {"username": "bulb_100"}
  }
]
