[
  {
    "username": "jiffybag1",
    "email": "jimbojones@gmail.com",
	"name": "James Jones",
    "password": "encryptme!",
    "member_since": "2020-09-12T13:37:27+00:00"
  },
  {
    "username": "sizzler45",
    "email": "simonsizzle@hotmail.co.uk",
	"name": "Simon Sizzle",
    "password": "encryptme!",
    "member_since": "2020-09-12T13:37:27+00:00"
  },
  {
    "username": "maskedninja",
    "email": "sallymcnally@hotmail.com",
	"name": "Sally McNally",
    "password": "encryptme!",
    "member_since": "2019-10-22T11:25:42+00:00"
  },
  {
    "username": "bulb_100",
    "email": "amirmohamed@yahoo.com",
	"name": "Amir Mohamed",
    "password": "encryptme!",
    "member_since": "2020-03-02T22:13:09+00:00"
  }
]
