
codes to run the program to be able to view the .jade files on web browsers in http://localhost:3000/
------------------------------------
  npm install -g express-generator

  npm install
  
  $env:DEBUG='myapp:*'; npm start
